# Blender v2.79 (sub 0) OBJ File: 'wheel.blend'
# www.blender.org
v -0.000000 0.080000 0.300000
v -0.000000 -0.080000 0.300000
v 0.077646 0.080000 0.289778
v 0.077646 -0.080000 0.289778
v 0.150000 0.080000 0.259808
v 0.150000 -0.080000 0.259808
v 0.212132 0.080000 0.212132
v 0.212132 -0.080000 0.212132
v 0.259808 0.080000 0.150000
v 0.259808 -0.080000 0.150000
v 0.289778 0.080000 0.077646
v 0.289778 -0.080000 0.077646
v 0.300000 0.080000 0.000000
v 0.300000 -0.080000 -0.000000
v 0.289778 0.080000 -0.077646
v 0.289778 -0.080000 -0.077646
v 0.259808 0.080000 -0.150000
v 0.259808 -0.080000 -0.150000
v 0.212132 0.080000 -0.212132
v 0.212132 -0.080000 -0.212132
v 0.150000 0.080000 -0.259807
v 0.150000 -0.080000 -0.259808
v 0.077646 0.080000 -0.289778
v 0.077646 -0.080000 -0.289778
v 0.000000 0.080000 -0.300000
v 0.000000 -0.080000 -0.300000
v -0.077646 0.080000 -0.289778
v -0.077646 -0.080000 -0.289778
v -0.150000 0.080000 -0.259808
v -0.150000 -0.080000 -0.259808
v -0.212132 0.080000 -0.212132
v -0.212132 -0.080000 -0.212132
v -0.259808 0.080000 -0.150000
v -0.259808 -0.080000 -0.150000
v -0.289778 0.080000 -0.077646
v -0.289778 -0.080000 -0.077646
v -0.300000 0.080000 -0.000000
v -0.300000 -0.080000 -0.000000
v -0.289778 0.080000 0.077646
v -0.289778 -0.080000 0.077645
v -0.259808 0.080000 0.150000
v -0.259808 -0.080000 0.150000
v -0.212132 0.080000 0.212132
v -0.212132 -0.080000 0.212132
v -0.150000 0.080000 0.259808
v -0.150000 -0.080000 0.259807
v -0.077646 0.080000 0.289778
v -0.077646 -0.080000 0.289778
v -0.000000 0.080000 0.300000
v 0.077646 0.080000 0.289778
v 0.077646 -0.080000 0.289778
v -0.000000 -0.080000 0.300000
v 0.150000 0.080000 0.259808
v 0.150000 -0.080000 0.259808
v 0.212132 0.080000 0.212132
v 0.212132 -0.080000 0.212132
v 0.259808 0.080000 0.150000
v 0.259808 -0.080000 0.150000
v 0.289778 0.080000 0.077646
v 0.289778 -0.080000 0.077646
v 0.300000 0.080000 0.000000
v 0.300000 -0.080000 -0.000000
v 0.289778 0.080000 -0.077646
v 0.289778 -0.080000 -0.077646
v 0.259808 0.080000 -0.150000
v 0.259808 -0.080000 -0.150000
v 0.212132 0.080000 -0.212132
v 0.212132 -0.080000 -0.212132
v 0.150000 0.080000 -0.259807
v 0.150000 -0.080000 -0.259808
v 0.077646 0.080000 -0.289778
v 0.077646 -0.080000 -0.289778
v 0.000000 0.080000 -0.300000
v 0.000000 -0.080000 -0.300000
v -0.077646 0.080000 -0.289778
v -0.077646 -0.080000 -0.289778
v -0.150000 0.080000 -0.259808
v -0.150000 -0.080000 -0.259808
v -0.212132 0.080000 -0.212132
v -0.212132 -0.080000 -0.212132
v -0.259808 0.080000 -0.150000
v -0.259808 -0.080000 -0.150000
v -0.289778 0.080000 -0.077646
v -0.289778 -0.080000 -0.077646
v -0.300000 0.080000 -0.000000
v -0.300000 -0.080000 -0.000000
v -0.289778 0.080000 0.077646
v -0.289778 -0.080000 0.077645
v -0.259808 0.080000 0.150000
v -0.259808 -0.080000 0.150000
v -0.212132 0.080000 0.212132
v -0.212132 -0.080000 0.212132
v -0.150000 0.080000 0.259808
v -0.150000 -0.080000 0.259807
v -0.077646 0.080000 0.289778
v -0.077646 -0.080000 0.289778
vt 0.403762 0.710140
vt 0.360562 0.746140
vt 0.360562 0.710140
vt 0.403762 0.746140
vt 0.360562 0.782140
vt 0.466425 0.645997
vt 0.423225 0.681998
vt 0.423225 0.645997
vt 0.466425 0.681998
vt 0.423225 0.717998
vt 0.466425 0.717998
vt 0.423225 0.753997
vt 0.466425 0.753997
vt 0.423225 0.789997
vt 0.057850 0.021420
vt 0.013786 0.058140
vt 0.013786 0.021420
vt 0.057850 0.058140
vt 0.013786 0.094860
vt 0.057850 0.094860
vt 0.013786 0.131580
vt 0.057850 0.168300
vt 0.013786 0.168300
vt 0.115776 0.021697
vt 0.072576 0.057697
vt 0.072576 0.021697
vt 0.115776 0.057697
vt 0.072576 0.093697
vt 0.115776 0.093697
vt 0.072576 0.129697
vt 0.115776 0.165697
vt 0.072576 0.165697
vt 0.014380 0.643054
vt 0.057580 0.679054
vt 0.014380 0.679054
vt 0.057580 0.715055
vt 0.014380 0.715055
vt 0.057580 0.751054
vt 0.014380 0.751054
vt 0.057580 0.787054
vt 0.014380 0.787054
vt 0.073709 0.650600
vt 0.116909 0.686600
vt 0.073709 0.686600
vt 0.116909 0.722600
vt 0.073709 0.722600
vt 0.116909 0.758600
vt 0.073709 0.758600
vt 0.073709 0.794600
vt 0.313779 0.142191
vt 0.324309 0.062207
vt 0.398842 0.031335
vt 0.360562 0.638140
vt 0.403762 0.674140
vt 0.360562 0.674140
vt 0.536477 0.941446
vt 0.525947 0.861462
vt 0.664483 0.843223
vt 0.403762 0.782140
vt 0.466425 0.789997
vt 0.057850 0.131580
vt 0.115776 0.129697
vt 0.057580 0.643054
vt 0.116909 0.650600
vt 0.116909 0.794600
vt 0.452315 0.160430
vt 0.437423 0.175322
vt 0.419185 0.185852
vt 0.398842 0.191302
vt 0.377782 0.191302
vt 0.357439 0.185852
vt 0.339201 0.175322
vt 0.324309 0.160430
vt 0.308328 0.121849
vt 0.308328 0.100789
vt 0.313779 0.080446
vt 0.339201 0.047316
vt 0.357439 0.036785
vt 0.377782 0.031335
vt 0.419185 0.036785
vt 0.437424 0.047315
vt 0.452315 0.062207
vt 0.462845 0.080446
vt 0.468296 0.100788
vt 0.468296 0.121849
vt 0.462845 0.142191
vt 0.403762 0.638140
vt 0.611010 0.972318
vt 0.589950 0.972318
vt 0.569607 0.966868
vt 0.551369 0.956338
vt 0.525947 0.923207
vt 0.520496 0.902865
vt 0.520496 0.881805
vt 0.536477 0.843223
vt 0.551369 0.828331
vt 0.569607 0.817801
vt 0.589950 0.812351
vt 0.611010 0.812351
vt 0.631353 0.817801
vt 0.649591 0.828332
vt 0.675013 0.861462
vt 0.680464 0.881805
vt 0.680464 0.902865
vt 0.675013 0.923207
vt 0.664483 0.941446
vt 0.649591 0.956338
vt 0.631352 0.966868
s 1
f 52/1 50/2 49/3
f 51/4 53/5 50/2
f 54/6 55/7 53/8
f 56/9 57/10 55/7
f 58/11 59/12 57/10
f 60/13 61/14 59/12
f 62/15 63/16 61/17
f 64/18 65/19 63/16
f 66/20 67/21 65/19
f 67/21 70/22 69/23
f 70/24 71/25 69/26
f 72/27 73/28 71/25
f 74/29 75/30 73/28
f 75/30 78/31 77/32
f 77/33 80/34 79/35
f 79/35 82/36 81/37
f 81/37 84/38 83/39
f 83/39 86/40 85/41
f 85/42 88/43 87/44
f 87/44 90/45 89/46
f 89/46 92/47 91/48
f 92/47 93/49 91/48
f 38/50 30/51 22/52
f 93/53 48/54 95/55
f 48/54 49/3 95/55
f 7/56 15/57 31/58
f 52/1 51/4 50/2
f 51/4 54/59 53/5
f 54/6 56/9 55/7
f 56/9 58/11 57/10
f 58/11 60/13 59/12
f 60/13 62/60 61/14
f 62/15 64/18 63/16
f 64/18 66/20 65/19
f 66/20 68/61 67/21
f 67/21 68/61 70/22
f 70/24 72/27 71/25
f 72/27 74/29 73/28
f 74/29 76/62 75/30
f 75/30 76/62 78/31
f 77/33 78/63 80/34
f 79/35 80/34 82/36
f 81/37 82/36 84/38
f 83/39 84/38 86/40
f 85/42 86/64 88/43
f 87/44 88/43 90/45
f 89/46 90/45 92/47
f 92/47 94/65 93/49
f 6/66 4/67 2/68
f 2/68 96/69 6/66
f 96/69 46/70 6/66
f 46/70 44/71 42/72
f 42/72 40/73 38/50
f 38/50 36/74 30/51
f 36/74 34/75 30/51
f 34/75 32/76 30/51
f 30/51 28/77 26/78
f 26/78 24/79 30/51
f 24/79 22/52 30/51
f 22/52 20/80 18/81
f 18/81 16/82 14/83
f 14/83 12/84 10/85
f 10/85 8/86 14/83
f 8/86 6/66 14/83
f 46/70 42/72 38/50
f 22/52 18/81 6/66
f 18/81 14/83 6/66
f 6/66 46/70 22/52
f 46/70 38/50 22/52
f 93/53 94/87 48/54
f 48/54 52/1 49/3
f 47/88 1/89 3/90
f 3/90 5/91 47/88
f 5/91 7/56 47/88
f 7/56 9/92 11/93
f 11/93 13/94 15/57
f 15/57 17/95 19/96
f 19/96 21/97 15/57
f 21/97 23/98 15/57
f 23/98 25/99 27/100
f 27/100 29/101 31/58
f 31/58 33/102 35/103
f 35/103 37/104 39/105
f 39/105 41/106 43/107
f 43/107 45/108 47/88
f 7/56 11/93 15/57
f 23/98 27/100 15/57
f 27/100 31/58 15/57
f 31/58 35/103 47/88
f 35/103 39/105 47/88
f 39/105 43/107 47/88
f 47/88 7/56 31/58
